### HEXMate logfile and output summary ###
### Memory Usage ###
 Unused memory ranges:
  6h - 7h
  152h - 9BDh
  4000h - 400Dh
  4010h - 403Fh
  
 FrontPanel.hex ranges:
  0h - 5h
  8h - 151h
  9BEh - 3FFFh
  400Eh - 400Fh
  
### Hex Memory Map ###
 Legend:
  - = Unused memory
  F = Filled ROM
  S = Stored serial code
  A = Stored ASCII string
  R = Reserved for checksum
  C = Stored checksum result
  T = Trailing code
  & = Find & replace opcode
  1 = FrontPanel.hex
00000000: 111111--11111111111111111111111111111111111111111111111111111111
00000040: 1111111111111111111111111111111111111111111111111111111111111111
00000080: 1111111111111111111111111111111111111111111111111111111111111111
000000C0: 1111111111111111111111111111111111111111111111111111111111111111
00000100: 1111111111111111111111111111111111111111111111111111111111111111
00000140: 111111111111111111----------------------------------------------
00000980: --------------------------------------------------------------11
000009C0: 1111111111111111111111111111111111111111111111111111111111111111
00000A00: 1111111111111111111111111111111111111111111111111111111111111111
00000A40: 1111111111111111111111111111111111111111111111111111111111111111
00000A80: 1111111111111111111111111111111111111111111111111111111111111111
00000AC0: 1111111111111111111111111111111111111111111111111111111111111111
00000B00: 1111111111111111111111111111111111111111111111111111111111111111
00000B40: 1111111111111111111111111111111111111111111111111111111111111111
00000B80: 1111111111111111111111111111111111111111111111111111111111111111
00000BC0: 1111111111111111111111111111111111111111111111111111111111111111
00000C00: 1111111111111111111111111111111111111111111111111111111111111111
00000C40: 1111111111111111111111111111111111111111111111111111111111111111
00000C80: 1111111111111111111111111111111111111111111111111111111111111111
00000CC0: 1111111111111111111111111111111111111111111111111111111111111111
00000D00: 1111111111111111111111111111111111111111111111111111111111111111
00000D40: 1111111111111111111111111111111111111111111111111111111111111111
00000D80: 1111111111111111111111111111111111111111111111111111111111111111
00000DC0: 1111111111111111111111111111111111111111111111111111111111111111
00000E00: 1111111111111111111111111111111111111111111111111111111111111111
00000E40: 1111111111111111111111111111111111111111111111111111111111111111
00000E80: 1111111111111111111111111111111111111111111111111111111111111111
00000EC0: 1111111111111111111111111111111111111111111111111111111111111111
00000F00: 1111111111111111111111111111111111111111111111111111111111111111
00000F40: 1111111111111111111111111111111111111111111111111111111111111111
00000F80: 1111111111111111111111111111111111111111111111111111111111111111
00000FC0: 1111111111111111111111111111111111111111111111111111111111111111
00004000: --------------11------------------------------------------------
